Circuitos/LAB05/simulation/qsim/DIVFREQ.msim.vcd
$comment
	File created using the following command:
		vcd file DIVFREQ.msim.vcd -direction
$end
$date
	Wed Jun 21 11:37:17 2023
$end
$version
	ModelSim Version 10.1d
$end
$timescale
	1ps
$end
$scope module DIVFREQ_vlg_vec_tst $end
$var reg 1 ! CLK_IN $end
$var wire 1 " CLK_OUT $end
$var wire 1 # sampler $end
$scope module i1 $end
$var wire 1 $ gnd $end
$var wire 1 % vcc $end
$var wire 1 & unknown $end
$var tri1 1 ' devclrn $end
$var tri1 1 ( devpor $end
$var tri1 1 ) devoe $end
$var wire 1 * CLK_OUT~output_o $end
$var wire 1 + CLK_IN~input_o $end
$var wire 1 , inst~0_combout $end
$var wire 1 - inst~feeder_combout $end
$var wire 1 . inst~q $end
$var wire 1 / inst54~0_combout $end
$var wire 1 0 inst54~q $end
$var wire 1 1 inst55~0_combout $end
$var wire 1 2 inst55~feeder_combout $end
$var wire 1 3 inst55~q $end
$var wire 1 4 inst56~0_combout $end
$var wire 1 5 inst56~q $end
$var wire 1 6 inst57~0_combout $end
$var wire 1 7 inst57~feeder_combout $end
$var wire 1 8 inst57~q $end
$var wire 1 9 inst58~0_combout $end
$var wire 1 : inst58~feeder_combout $end
$var wire 1 ; inst58~q $end
$var wire 1 < inst59~0_combout $end
$var wire 1 = inst59~q $end
$var wire 1 > inst60~0_combout $end
$var wire 1 ? inst60~feeder_combout $end
$var wire 1 @ inst60~q $end
$var wire 1 A inst61~0_combout $end
$var wire 1 B inst61~feeder_combout $end
$var wire 1 C inst61~q $end
$var wire 1 D inst62~0_combout $end
$var wire 1 E inst62~q $end
$var wire 1 F inst63~0_combout $end
$var wire 1 G inst63~feeder_combout $end
$var wire 1 H inst63~q $end
$var wire 1 I inst64~0_combout $end
$var wire 1 J inst64~q $end
$var wire 1 K inst65~0_combout $end
$var wire 1 L inst65~feeder_combout $end
$var wire 1 M inst65~q $end
$var wire 1 N inst66~0_combout $end
$var wire 1 O inst66~q $end
$var wire 1 P inst67~0_combout $end
$var wire 1 Q inst67~feeder_combout $end
$var wire 1 R inst67~q $end
$var wire 1 S inst68~0_combout $end
$var wire 1 T inst68~q $end
$var wire 1 U inst69~0_combout $end
$var wire 1 V inst69~feeder_combout $end
$var wire 1 W inst69~q $end
$var wire 1 X inst70~0_combout $end
$var wire 1 Y inst70~q $end
$var wire 1 Z inst71~0_combout $end
$var wire 1 [ inst71~feeder_combout $end
$var wire 1 \ inst71~q $end
$var wire 1 ] inst72~0_combout $end
$var wire 1 ^ inst72~feeder_combout $end
$var wire 1 _ inst72~q $end
$var wire 1 ` inst73~0_combout $end
$var wire 1 a inst73~feeder_combout $end
$var wire 1 b inst73~q $end
$var wire 1 c inst74~0_combout $end
$var wire 1 d inst74~q $end
$var wire 1 e inst75~0_combout $end
$var wire 1 f inst75~feeder_combout $end
$var wire 1 g inst75~q $end
$var wire 1 h inst76~0_combout $end
$var wire 1 i inst76~q $end
$var wire 1 j inst77~0_combout $end
$var wire 1 k inst77~feeder_combout $end
$var wire 1 l inst77~q $end
$var wire 1 m inst78~0_combout $end
$var wire 1 n inst78~q $end
$upscope $end
$upscope $end
$enddefinitions $end
#0
$dumpvars
0!
x"
x#
0$
1%
x&
1'
1(
1)
x*
0+
x,
x-
0.
x/
00
x1
x2
03
x4
05
x6
x7
08
x9
x:
0;
x<
0=
x>
x?
0@
xA
xB
0C
xD
0E
xF
xG
0H
xI
0J
xK
xL
0M
xN
0O
xP
xQ
0R
xS
0T
xU
xV
0W
xX
0Y
xZ
x[
0\
x]
x^
0_
x`
xa
0b
xc
0d
xe
xf
0g
xh
0i
xj
xk
0l
1m
0n
$end
#554
1N
1h
#555
1I
#556
1D
#557
1S
#558
1/
14
#559
1c
#681
1P
#683
19
#714
11
1Z
1j
#715
1K
#717
1`
#719
1F
#724
16
#727
1]
#728
1<
#729
1>
#732
1X
#851
1U
#854
1A
#855
1e
#1000
1!
0#
#1065
1,
#1126
1:
#1174
1^
#1237
1Q
#1268
1[
#1269
1k
#1270
1L
12
#1274
1G
1a
#1280
17
#1286
1?
#1405
1V
#1556
1f
#1591
1B
#1706
1+
#2000
0!
1#
#2179
1-
#2481
0*
0"
#2870
0+
#3000
1!
0#
#3706
1+
#4000
0!
1#
#4870
0+
#5000
1!
0#
#5706
1+
#6000
0!
1#
#6870
0+
#7000
1!
0#
#7706
1+
#8000
0!
1#
#8870
0+
#9000
1!
0#
#9706
1+
#10000
0!
1#
#10870
0+
#11000
1!
0#
#11706
1+
#12000
0!
1#
#12870
0+
#13000
1!
0#
#13706
1+
#14000
0!
1#
#14870
0+
#15000
1!
0#
#15706
1+
#16000
0!
1#
#16870
0+
#17000
1!
0#
#17706
1+
#18000
0!
1#
#18870
0+
#19000
1!
0#
#19706
1+
#20000
0!
1#
#20870
0+
#21000
1!
0#
#21706
1+
#22000
0!
1#
#22870
0+
#23000
1!
0#
#23706
1+
#24000
0!
1#
#24870
0+
#25000
1!
0#
#25706
1+
#26000
0!
1#
#26870
0+
#27000
1!
0#
#27706
1+
#28000
0!
1#
#28870
0+
#29000
1!
0#
#29706
1+
#30000
0!
1#
#30870
0+
#31000
1!
0#
#31706
1+
#32000
0!
1#
#32870
0+
#33000
1!
0#
#33706
1+
#34000
0!
1#
#34870
0+
#35000
1!
0#
#35706
1+
#36000
0!
1#
#36870
0+
#37000
1!
0#
#37706
1+
#38000
0!
1#
#38870
0+
#39000
1!
0#
#39706
1+
#40000
0!
1#
#40870
0+
#41000
1!
0#
#41706
1+
#42000
0!
1#
#42870
0+
#43000
1!
0#
#43706
1+
#44000
0!
1#
#44870
0+
#45000
1!
0#
#45706
1+
#46000
0!
1#
#46870
0+
#47000
1!
0#
#47706
1+
#48000
0!
1#
#48870
0+
#49000
1!
0#
#49706
1+
#50000
0!
1#
#50870
0+
#51000
1!
0#
#51706
1+
#52000
0!
1#
#52870
0+
#53000
1!
0#
#53706
1+
#54000
0!
1#
#54870
0+
#55000
1!
0#
#55706
1+
#56000
0!
1#
#56870
0+
#57000
1!
0#
#57706
1+
#58000
0!
1#
#58870
0+
#59000
1!
0#
#59706
1+
#60000
0!
1#
#60870
0+
#61000
1!
0#
#61706
1+
#62000
0!
1#
#62870
0+
#63000
1!
0#
#63706
1+
#64000
0!
1#
#64870
0+
#65000
1!
0#
#65706
1+
#66000
0!
1#
#66870
0+
#67000
1!
0#
#67706
1+
#68000
0!
1#
#68870
0+
#69000
1!
0#
#69706
1+
#70000
0!
1#
#70870
0+
#71000
1!
0#
#71706
1+
#72000
0!
1#
#72870
0+
#73000
1!
0#
#73706
1+
#74000
0!
1#
#74870
0+
#75000
1!
0#
#75706
1+
#76000
0!
1#
#76870
0+
#77000
1!
0#
#77706
1+
#78000
0!
1#
#78870
0+
#79000
1!
0#
#79706
1+
#80000
0!
1#
#80870
0+
#81000
1!
0#
#81706
1+
#82000
0!
1#
#82870
0+
#83000
1!
0#
#83706
1+
#84000
0!
1#
#84870
0+
#85000
1!
0#
#85706
1+
#86000
0!
1#
#86870
0+
#87000
1!
0#
#87706
1+
#88000
0!
1#
#88870
0+
#89000
1!
0#
#89706
1+
#90000
0!
1#
#90870
0+
#91000
1!
0#
#91706
1+
#92000
0!
1#
#92870
0+
#93000
1!
0#
#93706
1+
#94000
0!
1#
#94870
0+
#95000
1!
0#
#95706
1+
#96000
0!
1#
#96870
0+
#97000
1!
0#
#97706
1+
#98000
0!
1#
#98870
0+
#99000
1!
0#
#99706
1+
#100000
0!
1#
#100870
0+
#101000
1!
0#
#101706
1+
#102000
0!
1#
#102870
0+
#103000
1!
0#
#103706
1+
#104000
0!
1#
#104870
0+
#105000
1!
0#
#105706
1+
#106000
0!
1#
#106870
0+
#107000
1!
0#
#107706
1+
#108000
0!
1#
#108870
0+
#109000
1!
0#
#109706
1+
#110000
0!
1#
#110870
0+
#111000
1!
0#
#111706
1+
#112000
0!
1#
#112870
0+
#113000
1!
0#
#113706
1+
#114000
0!
1#
#114870
0+
#115000
1!
0#
#115706
1+
#116000
0!
1#
#116870
0+
#117000
1!
0#
#117706
1+
#118000
0!
1#
#118870
0+
#119000
1!
0#
#119706
1+
#120000
0!
1#
#120870
0+
#121000
1!
0#
#121706
1+
#122000
0!
1#
#122870
0+
#123000
1!
0#
#123706
1+
#124000
0!
1#
#124870
0+
#125000
1!
0#
#125706
1+
#126000
0!
1#
#126870
0+
#127000
1!
0#
#127706
1+
#128000
0!
1#
#128870
0+
#129000
1!
0#
#129706
1+
#130000
0!
1#
#130870
0+
#131000
1!
0#
#131706
1+
#132000
0!
1#
#132870
0+
#133000
1!
0#
#133706
1+
#134000
0!
1#
#134870
0+
#135000
1!
0#
#135706
1+
#136000
0!
1#
#136870
0+
#137000
1!
0#
#137706
1+
#138000
0!
1#
#138870
0+
#139000
1!
0#
#139706
1+
#140000
0!
1#
#140870
0+
#141000
1!
0#
#141706
1+
#142000
0!
1#
#142870
0+
#143000
1!
0#
#143706
1+
#144000
0!
1#
#144870
0+
#145000
1!
0#
#145706
1+
#146000
0!
1#
#146870
0+
#147000
1!
0#
#147706
1+
#148000
0!
1#
#148870
0+
#149000
1!
0#
#149706
1+
#150000
0!
1#
#150870
0+
#151000
1!
0#
#151706
1+
#152000
0!
1#
#152870
0+
#153000
1!
0#
#153706
1+
#154000
0!
1#
#154870
0+
#155000
1!
0#
#155706
1+
#156000
0!
1#
#156870
0+
#157000
1!
0#
#157706
1+
#158000
0!
1#
#158870
0+
#159000
1!
0#
#159706
1+
#160000
0!
1#
#160870
0+
#161000
1!
0#
#161706
1+
#162000
0!
1#
#162870
0+
#163000
1!
0#
#163706
1+
#164000
0!
1#
#164870
0+
#165000
1!
0#
#165706
1+
#166000
0!
1#
#166870
0+
#167000
1!
0#
#167706
1+
#168000
0!
1#
#168870
0+
#169000
1!
0#
#169706
1+
#170000
0!
1#
#170870
0+
#171000
1!
0#
#171706
1+
#172000
0!
1#
#172870
0+
#173000
1!
0#
#173706
1+
#174000
0!
1#
#174870
0+
#175000
1!
0#
#175706
1+
#176000
0!
1#
#176870
0+
#177000
1!
0#
#177706
1+
#178000
0!
1#
#178870
0+
#179000
1!
0#
#179706
1+
#180000
0!
1#
#180870
0+
#181000
1!
0#
#181706
1+
#182000
0!
1#
#182870
0+
#183000
1!
0#
#183706
1+
#184000
0!
1#
#184870
0+
#185000
1!
0#
#185706
1+
#186000
0!
1#
#186870
0+
#187000
1!
0#
#187706
1+
#188000
0!
1#
#188870
0+
#189000
1!
0#
#189706
1+
#190000
0!
1#
#190870
0+
#191000
1!
0#
#191706
1+
#192000
0!
1#
#192870
0+
#193000
1!
0#
#193706
1+
#194000
0!
1#
#194870
0+
#195000
1!
0#
#195706
1+
#196000
0!
1#
#196870
0+
#197000
1!
0#
#197706
1+
#198000
0!
1#
#198870
0+
#199000
1!
0#
#199706
1+
#200000
0!
1#
#200870
0+
#201000
1!
0#
#201706
1+
#202000
0!
1#
#202870
0+
#203000
1!
0#
#203706
1+
#204000
0!
1#
#204870
0+
#205000
1!
0#
#205706
1+
#206000
0!
1#
#206870
0+
#207000
1!
0#
#207706
1+
#208000
0!
1#
#208870
0+
#209000
1!
0#
#209706
1+
#210000
0!
1#
#210870
0+
#211000
1!
0#
#211706
1+
#212000
0!
1#
#212870
0+
#213000
1!
0#
#213706
1+
#214000
0!
1#
#214870
0+
#215000
1!
0#
#215706
1+
#216000
0!
1#
#216870
0+
#217000
1!
0#
#217706
1+
#218000
0!
1#
#218870
0+
#219000
1!
0#
#219706
1+
#220000
0!
1#
#220870
0+
#221000
1!
0#
#221706
1+
#222000
0!
1#
#222870
0+
#223000
1!
0#
#223706
1+
#224000
0!
1#
#224870
0+
#225000
1!
0#
#225706
1+
#226000
0!
1#
#226870
0+
#227000
1!
0#
#227706
1+
#228000
0!
1#
#228870
0+
#229000
1!
0#
#229706
1+
#230000
0!
1#
#230870
0+
#231000
1!
0#
#231706
1+
#232000
0!
1#
#232870
0+
#233000
1!
0#
#233706
1+
#234000
0!
1#
#234870
0+
#235000
1!
0#
#235706
1+
#236000
0!
1#
#236870
0+
#237000
1!
0#
#237706
1+
#238000
0!
1#
#238870
0+
#239000
1!
0#
#239706
1+
#240000
0!
1#
#240870
0+
#241000
1!
0#
#241706
1+
#242000
0!
1#
#242870
0+
#243000
1!
0#
#243706
1+
#244000
0!
1#
#244870
0+
#245000
1!
0#
#245706
1+
#246000
0!
1#
#246870
0+
#247000
1!
0#
#247706
1+
#248000
0!
1#
#248870
0+
#249000
1!
0#
#249706
1+
#250000
0!
1#
#250870
0+
#251000
1!
0#
#251706
1+
#252000
0!
1#
#252870
0+
#253000
1!
0#
#253706
1+
#254000
0!
1#
#254870
0+
#255000
1!
0#
#255706
1+
#256000
0!
1#
#256870
0+
#257000
1!
0#
#257706
1+
#258000
0!
1#
#258870
0+
#259000
1!
0#
#259706
1+
#260000
0!
1#
#260870
0+
#261000
1!
0#
#261706
1+
#262000
0!
1#
#262870
0+
#263000
1!
0#
#263706
1+
#264000
0!
1#
#264870
0+
#265000
1!
0#
#265706
1+
#266000
0!
1#
#266870
0+
#267000
1!
0#
#267706
1+
#268000
0!
1#
#268870
0+
#269000
1!
0#
#269706
1+
#270000
0!
1#
#270870
0+
#271000
1!
0#
#271706
1+
#272000
0!
1#
#272870
0+
#273000
1!
0#
#273706
1+
#274000
0!
1#
#274870
0+
#275000
1!
0#
#275706
1+
#276000
0!
1#
#276870
0+
#277000
1!
0#
#277706
1+
#278000
0!
1#
#278870
0+
#279000
1!
0#
#279706
1+
#280000
0!
1#
#280870
0+
#281000
1!
0#
#281706
1+
#282000
0!
1#
#282870
0+
#283000
1!
0#
#283706
1+
#284000
0!
1#
#284870
0+
#285000
1!
0#
#285706
1+
#286000
0!
1#
#286870
0+
#287000
1!
0#
#287706
1+
#288000
0!
1#
#288870
0+
#289000
1!
0#
#289706
1+
#290000
0!
1#
#290870
0+
#291000
1!
0#
#291706
1+
#292000
0!
1#
#292870
0+
#293000
1!
0#
#293706
1+
#294000
0!
1#
#294870
0+
#295000
1!
0#
#295706
1+
#296000
0!
1#
#296870
0+
#297000
1!
0#
#297706
1+
#298000
0!
1#
#298870
0+
#299000
1!
0#
#299706
1+
#300000
0!
1#
#300870
0+
#301000
1!
0#
#301706
1+
#302000
0!
1#
#302870
0+
#303000
1!
0#
#303706
1+
#304000
0!
1#
#304870
0+
#305000
1!
0#
#305706
1+
#306000
0!
1#
#306870
0+
#307000
1!
0#
#307706
1+
#308000
0!
1#
#308870
0+
#309000
1!
0#
#309706
1+
#310000
0!
1#
#310870
0+
#311000
1!
0#
#311706
1+
#312000
0!
1#
#312870
0+
#313000
1!
0#
#313706
1+
#314000
0!
1#
#314870
0+
#315000
1!
0#
#315706
1+
#316000
0!
1#
#316870
0+
#317000
1!
0#
#317706
1+
#318000
0!
1#
#318870
0+
#319000
1!
0#
#319706
1+
#320000
0!
1#
#320870
0+
#321000
1!
0#
#321706
1+
#322000
0!
1#
#322870
0+
#323000
1!
0#
#323706
1+
#324000
0!
1#
#324870
0+
#325000
1!
0#
#325706
1+
#326000
0!
1#
#326870
0+
#327000
1!
0#
#327706
1+
#328000
0!
1#
#328870
0+
#329000
1!
0#
#329706
1+
#330000
0!
1#
#330870
0+
#331000
1!
0#
#331706
1+
#332000
0!
1#
#332870
0+
#333000
1!
0#
#333706
1+
#334000
0!
1#
#334870
0+
#335000
1!
0#
#335706
1+
#336000
0!
1#
#336870
0+
#337000
1!
0#
#337706
1+
#338000
0!
1#
#338870
0+
#339000
1!
0#
#339706
1+
#340000
0!
1#
#340870
0+
#341000
1!
0#
#341706
1+
#342000
0!
1#
#342870
0+
#343000
1!
0#
#343706
1+
#344000
0!
1#
#344870
0+
#345000
1!
0#
#345706
1+
#346000
0!
1#
#346870
0+
#347000
1!
0#
#347706
1+
#348000
0!
1#
#348870
0+
#349000
1!
0#
#349706
1+
#350000
0!
1#
#350870
0+
#351000
1!
0#
#351706
1+
#352000
0!
1#
#352870
0+
#353000
1!
0#
#353706
1+
#354000
0!
1#
#354870
0+
#355000
1!
0#
#355706
1+
#356000
0!
1#
#356870
0+
#357000
1!
0#
#357706
1+
#358000
0!
1#
#358870
0+
#359000
1!
0#
#359706
1+
#360000
0!
1#
#360870
0+
#361000
1!
0#
#361706
1+
#362000
0!
1#
#362870
0+
#363000
1!
0#
#363706
1+
#364000
0!
1#
#364870
0+
#365000
1!
0#
#365706
1+
#366000
0!
1#
#366870
0+
#367000
1!
0#
#367706
1+
#368000
0!
1#
#368870
0+
#369000
1!
0#
#369706
1+
#370000
0!
1#
#370870
0+
#371000
1!
0#
#371706
1+
#372000
0!
1#
#372870
0+
#373000
1!
0#
#373706
1+
#374000
0!
1#
#374870
0+
#375000
1!
0#
#375706
1+
#376000
0!
1#
#376870
0+
#377000
1!
0#
#377706
1+
#378000
0!
1#
#378870
0+
#379000
1!
0#
#379706
1+
#380000
0!
1#
#380870
0+
#381000
1!
0#
#381706
1+
#382000
0!
1#
#382870
0+
#383000
1!
0#
#383706
1+
#384000
0!
1#
#384870
0+
#385000
1!
0#
#385706
1+
#386000
0!
1#
#386870
0+
#387000
1!
0#
#387706
1+
#388000
0!
1#
#388870
0+
#389000
1!
0#
#389706
1+
#390000
0!
1#
#390870
0+
#391000
1!
0#
#391706
1+
#392000
0!
1#
#392870
0+
#393000
1!
0#
#393706
1+
#394000
0!
1#
#394870
0+
#395000
1!
0#
#395706
1+
#396000
0!
1#
#396870
0+
#397000
1!
0#
#397706
1+
#398000
0!
1#
#398870
0+
#399000
1!
0#
#399706
1+
#400000
0!
1#
#400870
0+
#401000
1!
0#
#401706
1+
#402000
0!
1#
#402870
0+
#403000
1!
0#
#403706
1+
#404000
0!
1#
#404870
0+
#405000
1!
0#
#405706
1+
#406000
0!
1#
#406870
0+
#407000
1!
0#
#407706
1+
#408000
0!
1#
#408870
0+
#409000
1!
0#
#409706
1+
#410000
0!
1#
#410870
0+
#411000
1!
0#
#411706
1+
#412000
0!
1#
#412870
0+
#413000
1!
0#
#413706
1+
#414000
0!
1#
#414870
0+
#415000
1!
0#
#415706
1+
#416000
0!
1#
#416870
0+
#417000
1!
0#
#417706
1+
#418000
0!
1#
#418870
0+
#419000
1!
0#
#419706
1+
#420000
0!
1#
#420870
0+
#421000
1!
0#
#421706
1+
#422000
0!
1#
#422870
0+
#423000
1!
0#
#423706
1+
#424000
0!
1#
#424870
0+
#425000
1!
0#
#425706
1+
#426000
0!
1#
#426870
0+
#427000
1!
0#
#427706
1+
#428000
0!
1#
#428870
0+
#429000
1!
0#
#429706
1+
#430000
0!
1#
#430870
0+
#431000
1!
0#
#431706
1+
#432000
0!
1#
#432870
0+
#433000
1!
0#
#433706
1+
#434000
0!
1#
#434870
0+
#435000
1!
0#
#435706
1+
#436000
0!
1#
#436870
0+
#437000
1!
0#
#437706
1+
#438000
0!
1#
#438870
0+
#439000
1!
0#
#439706
1+
#440000
0!
1#
#440870
0+
#441000
1!
0#
#441706
1+
#442000
0!
1#
#442870
0+
#443000
1!
0#
#443706
1+
#444000
0!
1#
#444870
0+
#445000
1!
0#
#445706
1+
#446000
0!
1#
#446870
0+
#447000
1!
0#
#447706
1+
#448000
0!
1#
#448870
0+
#449000
1!
0#
#449706
1+
#450000
0!
1#
#450870
0+
#451000
1!
0#
#451706
1+
#452000
0!
1#
#452870
0+
#453000
1!
0#
#453706
1+
#454000
0!
1#
#454870
0+
#455000
1!
0#
#455706
1+
#456000
0!
1#
#456870
0+
#457000
1!
0#
#457706
1+
#458000
0!
1#
#458870
0+
#459000
1!
0#
#459706
1+
#460000
0!
1#
#460870
0+
#461000
1!
0#
#461706
1+
#462000
0!
1#
#462870
0+
#463000
1!
0#
#463706
1+
#464000
0!
1#
#464870
0+
#465000
1!
0#
#465706
1+
#466000
0!
1#
#466870
0+
#467000
1!
0#
#467706
1+
#468000
0!
1#
#468870
0+
#469000
1!
0#
#469706
1+
#470000
0!
1#
#470870
0+
#471000
1!
0#
#471706
1+
#472000
0!
1#
#472870
0+
#473000
1!
0#
#473706
1+
#474000
0!
1#
#474870
0+
#475000
1!
0#
#475706
1+
#476000
0!
1#
#476870
0+
#477000
1!
0#
#477706
1+
#478000
0!
1#
#478870
0+
#479000
1!
0#
#479706
1+
#480000
0!
1#
#480870
0+
#481000
1!
0#
#481706
1+
#482000
0!
1#
#482870
0+
#483000
1!
0#
#483706
1+
#484000
0!
1#
#484870
0+
#485000
1!
0#
#485706
1+
#486000
0!
1#
#486870
0+
#487000
1!
0#
#487706
1+
#488000
0!
1#
#488870
0+
#489000
1!
0#
#489706
1+
#490000
0!
1#
#490870
0+
#491000
1!
0#
#491706
1+
#492000
0!
1#
#492870
0+
#493000
1!
0#
#493706
1+
#494000
0!
1#
#494870
0+
#495000
1!
0#
#495706
1+
#496000
0!
1#
#496870
0+
#497000
1!
0#
#497706
1+
#498000
0!
1#
#498870
0+
#499000
1!
0#
#499706
1+
#500000
0!
1#
#500870
0+
#501000
1!
0#
#501706
1+
#502000
0!
1#
#502870
0+
#503000
1!
0#
#503706
1+
#504000
0!
1#
#504870
0+
#505000
1!
0#
#505706
1+
#506000
0!
1#
#506870
0+
#507000
1!
0#
#507706
1+
#508000
0!
1#
#508870
0+
#509000
1!
0#
#509706
1+
#510000
0!
1#
#510870
0+
#511000
1!
0#
#511706
1+
#512000
0!
1#
#512870
0+
#513000
1!
0#
#513706
1+
#514000
0!
1#
#514870
0+
#515000
1!
0#
#515706
1+
#516000
0!
1#
#516870
0+
#517000
1!
0#
#517706
1+
#518000
0!
1#
#518870
0+
#519000
1!
0#
#519706
1+
#520000
0!
1#
#520870
0+
#521000
1!
0#
#521706
1+
#522000
0!
1#
#522870
0+
#523000
1!
0#
#523706
1+
#524000
0!
1#
#524870
0+
#525000
1!
0#
#525706
1+
#526000
0!
1#
#526870
0+
#527000
1!
0#
#527706
1+
#528000
0!
1#
#528870
0+
#529000
1!
0#
#529706
1+
#530000
0!
1#
#530870
0+
#531000
1!
0#
#531706
1+
#532000
0!
1#
#532870
0+
#533000
1!
0#
#533706
1+
#534000
0!
1#
#534870
0+
#535000
1!
0#
#535706
1+
#536000
0!
1#
#536870
0+
#537000
1!
0#
#537706
1+
#538000
0!
1#
#538870
0+
#539000
1!
0#
#539706
1+
#540000
0!
1#
#540870
0+
#541000
1!
0#
#541706
1+
#542000
0!
1#
#542870
0+
#543000
1!
0#
#543706
1+
#544000
0!
1#
#544870
0+
#545000
1!
0#
#545706
1+
#546000
0!
1#
#546870
0+
#547000
1!
0#
#547706
1+
#548000
0!
1#
#548870
0+
#549000
1!
0#
#549706
1+
#550000
0!
1#
#550870
0+
#551000
1!
0#
#551706
1+
#552000
0!
1#
#552870
0+
#553000
1!
0#
#553706
1+
#554000
0!
1#
#554870
0+
#555000
1!
0#
#555706
1+
#556000
0!
1#
#556870
0+
#557000
1!
0#
#557706
1+
#558000
0!
1#
#558870
0+
#559000
1!
0#
#559706
1+
#560000
0!
1#
#560870
0+
#561000
1!
0#
#561706
1+
#562000
0!
1#
#562870
0+
#563000
1!
0#
#563706
1+
#564000
0!
1#
#564870
0+
#565000
1!
0#
#565706
1+
#566000
0!
1#
#566870
0+
#567000
1!
0#
#567706
1+
#568000
0!
1#
#568870
0+
#569000
1!
0#
#569706
1+
#570000
0!
1#
#570870
0+
#571000
1!
0#
#571706
1+
#572000
0!
1#
#572870
0+
#573000
1!
0#
#573706
1+
#574000
0!
1#
#574870
0+
#575000
1!
0#
#575706
1+
#576000
0!
1#
#576870
0+
#577000
1!
0#
#577706
1+
#578000
0!
1#
#578870
0+
#579000
1!
0#
#579706
1+
#580000
0!
1#
#580870
0+
#581000
1!
0#
#581706
1+
#582000
0!
1#
#582870
0+
#583000
1!
0#
#583706
1+
#584000
0!
1#
#584870
0+
#585000
1!
0#
#585706
1+
#586000
0!
1#
#586870
0+
#587000
1!
0#
#587706
1+
#588000
0!
1#
#588870
0+
#589000
1!
0#
#589706
1+
#590000
0!
1#
#590870
0+
#591000
1!
0#
#591706
1+
#592000
0!
1#
#592870
0+
#593000
1!
0#
#593706
1+
#594000
0!
1#
#594870
0+
#595000
1!
0#
#595706
1+
#596000
0!
1#
#596870
0+
#597000
1!
0#
#597706
1+
#598000
0!
1#
#598870
0+
#599000
1!
0#
#599706
1+
#600000
0!
1#
#600870
0+
#601000
1!
0#
#601706
1+
#602000
0!
1#
#602870
0+
#603000
1!
0#
#603706
1+
#604000
0!
1#
#604870
0+
#605000
1!
0#
#605706
1+
#606000
0!
1#
#606870
0+
#607000
1!
0#
#607706
1+
#608000
0!
1#
#608870
0+
#609000
1!
0#
#609706
1+
#610000
0!
1#
#610870
0+
#611000
1!
0#
#611706
1+
#612000
0!
1#
#612870
0+
#613000
1!
0#
#613706
1+
#614000
0!
1#
#614870
0+
#615000
1!
0#
#615706
1+
#616000
0!
1#
#616870
0+
#617000
1!
0#
#617706
1+
#618000
0!
1#
#618870
0+
#619000
1!
0#
#619706
1+
#620000
0!
1#
#620870
0+
#621000
1!
0#
#621706
1+
#622000
0!
1#
#622870
0+
#623000
1!
0#
#623706
1+
#624000
0!
1#
#624870
0+
#625000
1!
0#
#625706
1+
#626000
0!
1#
#626870
0+
#627000
1!
0#
#627706
1+
#628000
0!
1#
#628870
0+
#629000
1!
0#
#629706
1+
#630000
0!
1#
#630870
0+
#631000
1!
0#
#631706
1+
#632000
0!
1#
#632870
0+
#633000
1!
0#
#633706
1+
#634000
0!
1#
#634870
0+
#635000
1!
0#
#635706
1+
#636000
0!
1#
#636870
0+
#637000
1!
0#
#637706
1+
#638000
0!
1#
#638870
0+
#639000
1!
0#
#639706
1+
#640000
0!
1#
#640870
0+
#641000
1!
0#
#641706
1+
#642000
0!
1#
#642870
0+
#643000
1!
0#
#643706
1+
#644000
0!
1#
#644870
0+
#645000
1!
0#
#645706
1+
#646000
0!
1#
#646870
0+
#647000
1!
0#
#647706
1+
#648000
0!
1#
#648870
0+
#649000
1!
0#
#649706
1+
#650000
0!
1#
#650870
0+
#651000
1!
0#
#651706
1+
#652000
0!
1#
#652870
0+
#653000
1!
0#
#653706
1+
#654000
0!
1#
#654870
0+
#655000
1!
0#
#655706
1+
#656000
0!
1#
#656870
0+
#657000
1!
0#
#657706
1+
#658000
0!
1#
#658870
0+
#659000
1!
0#
#659706
1+
#660000
0!
1#
#660870
0+
#661000
1!
0#
#661706
1+
#662000
0!
1#
#662870
0+
#663000
1!
0#
#663706
1+
#664000
0!
1#
#664870
0+
#665000
1!
0#
#665706
1+
#666000
0!
1#
#666870
0+
#667000
1!
0#
#667706
1+
#668000
0!
1#
#668870
0+
#669000
1!
0#
#669706
1+
#670000
0!
1#
#670870
0+
#671000
1!
0#
#671706
1+
#672000
0!
1#
#672870
0+
#673000
1!
0#
#673706
1+
#674000
0!
1#
#674870
0+
#675000
1!
0#
#675706
1+
#676000
0!
1#
#676870
0+
#677000
1!
0#
#677706
1+
#678000
0!
1#
#678870
0+
#679000
1!
0#
#679706
1+
#680000
0!
1#
#680870
0+
#681000
1!
0#
#681706
1+
#682000
0!
1#
#682870
0+
#683000
1!
0#
#683706
1+
#684000
0!
1#
#684870
0+
#685000
1!
0#
#685706
1+
#686000
0!
1#
#686870
0+
#687000
1!
0#
#687706
1+
#688000
0!
1#
#688870
0+
#689000
1!
0#
#689706
1+
#690000
0!
1#
#690870
0+
#691000
1!
0#
#691706
1+
#692000
0!
1#
#692870
0+
#693000
1!
0#
#693706
1+
#694000
0!
1#
#694870
0+
#695000
1!
0#
#695706
1+
#696000
0!
1#
#696870
0+
#697000
1!
0#
#697706
1+
#698000
0!
1#
#698870
0+
#699000
1!
0#
#699706
1+
#700000
0!
1#
#700870
0+
#701000
1!
0#
#701706
1+
#702000
0!
1#
#702870
0+
#703000
1!
0#
#703706
1+
#704000
0!
1#
#704870
0+
#705000
1!
0#
#705706
1+
#706000
0!
1#
#706870
0+
#707000
1!
0#
#707706
1+
#708000
0!
1#
#708870
0+
#709000
1!
0#
#709706
1+
#710000
0!
1#
#710870
0+
#711000
1!
0#
#711706
1+
#712000
0!
1#
#712870
0+
#713000
1!
0#
#713706
1+
#714000
0!
1#
#714870
0+
#715000
1!
0#
#715706
1+
#716000
0!
1#
#716870
0+
#717000
1!
0#
#717706
1+
#718000
0!
1#
#718870
0+
#719000
1!
0#
#719706
1+
#720000
0!
1#
#720870
0+
#721000
1!
0#
#721706
1+
#722000
0!
1#
#722870
0+
#723000
1!
0#
#723706
1+
#724000
0!
1#
#724870
0+
#725000
1!
0#
#725706
1+
#726000
0!
1#
#726870
0+
#727000
1!
0#
#727706
1+
#728000
0!
1#
#728870
0+
#729000
1!
0#
#729706
1+
#730000
0!
1#
#730870
0+
#731000
1!
0#
#731706
1+
#732000
0!
1#
#732870
0+
#733000
1!
0#
#733706
1+
#734000
0!
1#
#734870
0+
#735000
1!
0#
#735706
1+
#736000
0!
1#
#736870
0+
#737000
1!
0#
#737706
1+
#738000
0!
1#
#738870
0+
#739000
1!
0#
#739706
1+
#740000
0!
1#
#740870
0+
#741000
1!
0#
#741706
1+
#742000
0!
1#
#742870
0+
#743000
1!
0#
#743706
1+
#744000
0!
1#
#744870
0+
#745000
1!
0#
#745706
1+
#746000
0!
1#
#746870
0+
#747000
1!
0#
#747706
1+
#748000
0!
1#
#748870
0+
#749000
1!
0#
#749706
1+
#750000
0!
1#
#750870
0+
#751000
1!
0#
#751706
1+
#752000
0!
1#
#752870
0+
#753000
1!
0#
#753706
1+
#754000
0!
1#
#754870
0+
#755000
1!
0#
#755706
1+
#756000
0!
1#
#756870
0+
#757000
1!
0#
#757706
1+
#758000
0!
1#
#758870
0+
