Circuitos/LAB03/simulation/qsim/LAB03.msim.vcd
$comment
	File created using the following command:
		vcd file LAB03.msim.vcd -direction
$end
$date
	Thu Nov 16 12:06:08 2023
$end
$version
	ModelSim Version 10.1d
$end
$timescale
	1ps
$end
$scope module LAB03_vlg_vec_tst $end
$var reg 4 ! A [3:0] $end
$var reg 4 " B [3:0] $end
$var reg 2 # op [1:0] $end
$var wire 1 $ flag_N $end
$var wire 1 % flag_Z $end
$var wire 1 & S [3] $end
$var wire 1 ' S [2] $end
$var wire 1 ( S [1] $end
$var wire 1 ) S [0] $end
$var wire 1 * sampler $end
$scope module i1 $end
$var wire 1 + gnd $end
$var wire 1 , vcc $end
$var wire 1 - unknown $end
$var tri1 1 . devclrn $end
$var tri1 1 / devpor $end
$var tri1 1 0 devoe $end
$var wire 1 1 flag_Z~output_o $end
$var wire 1 2 S[3]~output_o $end
$var wire 1 3 S[2]~output_o $end
$var wire 1 4 S[1]~output_o $end
$var wire 1 5 S[0]~output_o $end
$var wire 1 6 flag_N~output_o $end
$var wire 1 7 B[3]~input_o $end
$var wire 1 8 op[0]~input_o $end
$var wire 1 9 op[1]~input_o $end
$var wire 1 : A[3]~input_o $end
$var wire 1 ; inst9|inst3|inst2~3_combout $end
$var wire 1 < B[2]~input_o $end
$var wire 1 = A[2]~input_o $end
$var wire 1 > B[0]~input_o $end
$var wire 1 ? B[1]~input_o $end
$var wire 1 @ A[1]~input_o $end
$var wire 1 A A[0]~input_o $end
$var wire 1 B inst|inst|inst4~0_combout $end
$var wire 1 C inst9|inst3|inst2~2_combout $end
$var wire 1 D inst9|inst3|inst2~4_combout $end
$var wire 1 E inst9|inst2|inst2~2_combout $end
$var wire 1 F inst9|inst2|inst2~3_combout $end
$var wire 1 G inst9|inst1|inst2~0_combout $end
$var wire 1 H inst9|inst1|inst2~1_combout $end
$var wire 1 I inst9|inst1|inst2~2_combout $end
$var wire 1 J inst9|inst|inst2~0_combout $end
$var wire 1 K inst1~0_combout $end
$upscope $end
$upscope $end
$enddefinitions $end
#0
$dumpvars
b100 !
b100 "
b0 #
x$
x%
x)
x(
x'
x&
x*
0+
1,
x-
1.
1/
10
x1
x2
x3
x4
x5
x6
07
08
09
0:
x;
1<
1=
0>
0?
0@
0A
xB
xC
xD
xE
xF
xG
xH
xI
xJ
xK
$end
#3153
1C
#3155
0;
#3361
0B
#3379
0G
#3442
0J
#3500
0E
#3501
0H
#3758
1D
#3827
0I
#4114
0F
#4337
1K
#6288
05
0)
#6356
16
1$
#6629
12
1&
#6992
03
0'
#7225
01
0%
#8009
04
0(
#140000
b1100 !
b1000 !
b1100 "
b1000 "
0*
#140725
1:
17
#140886
0=
0<
#144125
0C
#144447
0D
#145065
0K
#147042
06
0$
#147338
02
0&
#147956
11
1%
#320000
b1010 !
b1011 !
b1 #
b1111 !
1*
#320725
1=
1@
#320735
1A
18
#323958
1H
#323984
1;
#324542
1D
#325121
1K
#327140
16
1$
#327413
12
1&
#328009
01
0%
#500000
b111 !
b101 !
b100 !
b0 !
0*
#500886
0:
0=
0@
#500896
0A
#504041
0;
#504657
0D
#505275
0K
#507252
06
0$
#507548
02
0&
#508166
11
1%
#620000
b11 #
b10 #
1*
#620775
19
#620896
08
#623670
1G
#623791
1;
#623801
1J
#623929
1E
#624086
1I
#624253
1K
#624349
1D
#624396
0E
#624401
0J
#624408
0G
#624486
1F
#624856
0I
#625010
0F
#626947
16
1$
#627141
01
0%
#627220
12
1&
#760000
b1000 !
b1010 !
b1011 !
b1111 !
0*
#760725
1:
1=
1@
#760735
1A
#763647
1J
#763710
1E
#763856
1G
#764267
1F
#764272
1I
#766481
15
1)
#767128
13
1'
#768333
14
1(
#920000
b11 #
1*
#920735
18
#923971
0E
#923977
0J
#923983
0;
0G
#924431
0I
#924585
0F
#924599
0D
#925217
0K
#926823
05
0)
#927194
06
0$
#927463
03
0'
#927490
02
0&
#928108
11
1%
#928613
04
0(
#980000
b0 "
0*
#980886
07
