Circuitos/LAB06/simulation/qsim/CONTA_A_DOR.msim.vcd
$comment
	File created using the following command:
		vcd file CONTA_A_DOR.msim.vcd -direction
$end
$date
	Thu Jun 29 14:45:53 2023
$end
$version
	ModelSim Version 10.1d
$end
$timescale
	1ps
$end
$scope module CONTA_A_DOR_vlg_vec_tst $end
$var reg 8 ! A [7:0] $end
$var reg 1 " CLK $end
$var reg 2 # SEL [1:0] $end
$var wire 1 $ Q [7] $end
$var wire 1 % Q [6] $end
$var wire 1 & Q [5] $end
$var wire 1 ' Q [4] $end
$var wire 1 ( Q [3] $end
$var wire 1 ) Q [2] $end
$var wire 1 * Q [1] $end
$var wire 1 + Q [0] $end
$var wire 1 , sampler $end
$scope module i1 $end
$var wire 1 - gnd $end
$var wire 1 . vcc $end
$var wire 1 / unknown $end
$var tri1 1 0 devclrn $end
$var tri1 1 1 devpor $end
$var tri1 1 2 devoe $end
$var wire 1 3 Q[7]~output_o $end
$var wire 1 4 Q[6]~output_o $end
$var wire 1 5 Q[5]~output_o $end
$var wire 1 6 Q[4]~output_o $end
$var wire 1 7 Q[3]~output_o $end
$var wire 1 8 Q[2]~output_o $end
$var wire 1 9 Q[1]~output_o $end
$var wire 1 : Q[0]~output_o $end
$var wire 1 ; CLK~input_o $end
$var wire 1 < CLK~inputclkctrl_outclk $end
$var wire 1 = A[7]~input_o $end
$var wire 1 > SEL[1]~input_o $end
$var wire 1 ? A[6]~input_o $end
$var wire 1 @ A[5]~input_o $end
$var wire 1 A SEL[0]~input_o $end
$var wire 1 B A[4]~input_o $end
$var wire 1 C A[0]~input_o $end
$var wire 1 D inst|inst2|inst2~0_combout $end
$var wire 1 E inst55~0_combout $end
$var wire 1 F inst2~q $end
$var wire 1 G inst11|inst2|inst2~0_combout $end
$var wire 1 H A[1]~input_o $end
$var wire 1 I inst11|inst2|inst2~1_combout $end
$var wire 1 J inst6~q $end
$var wire 1 K inst14|inst2|inst2~0_combout $end
$var wire 1 L A[2]~input_o $end
$var wire 1 M inst14|inst2|inst2~1_combout $end
$var wire 1 N inst15~q $end
$var wire 1 O A[3]~input_o $end
$var wire 1 P inst22|inst2|inst2~0_combout $end
$var wire 1 Q inst22|inst2|inst2~1_combout $end
$var wire 1 R inst23~q $end
$var wire 1 S inst43~0_combout $end
$var wire 1 T inst30|inst2|inst2~0_combout $end
$var wire 1 U inst30|inst2|inst2~1_combout $end
$var wire 1 V inst33~0_combout $end
$var wire 1 W inst30|inst2|inst2~2_combout $end
$var wire 1 X inst30|inst2|inst2~3_combout $end
$var wire 1 Y inst31~q $end
$var wire 1 Z inst38|inst2|inst2~0_combout $end
$var wire 1 [ inst38|inst2|inst2~1_combout $end
$var wire 1 \ inst38|inst2|inst2~2_combout $end
$var wire 1 ] inst39~q $end
$var wire 1 ^ inst54|inst2|inst2~4_combout $end
$var wire 1 _ inst54|inst2|inst2~3_combout $end
$var wire 1 ` inst46|inst2|inst2~0_combout $end
$var wire 1 a inst46|inst2|inst2~1_combout $end
$var wire 1 b inst46|inst2|inst2~2_combout $end
$var wire 1 c inst46|inst2|inst2~3_combout $end
$var wire 1 d inst47~q $end
$var wire 1 e inst54|inst2|inst2~5_combout $end
$var wire 1 f inst54|inst2|inst2~0_combout $end
$var wire 1 g inst54|inst2|inst2~1_combout $end
$var wire 1 h inst54|inst2|inst2~2_combout $end
$var wire 1 i inst54|inst2|inst2~6_combout $end
$var wire 1 j inst55~q $end
$upscope $end
$upscope $end
$enddefinitions $end
#0
$dumpvars
b1001011 !
0"
b0 #
0+
0*
0)
0(
0'
0&
0%
0$
x,
0-
1.
x/
10
11
12
03
04
05
06
07
08
09
0:
0;
0<
0=
0>
1?
0@
0A
0B
1C
1D
1E
0F
0G
1H
1I
0J
1K
0L
0M
0N
1O
1P
1Q
0R
0S
0T
0U
1V
0W
0X
0Y
0Z
0[
0\
0]
0^
0_
1`
0a
0b
1c
0d
0e
0f
1g
0h
0i
0j
$end
#50000
1"
1;
1<
0,
1d
1R
1J
1F
1b
0V
0K
14
17
19
1:
1%
1(
1*
1+
0g
0`
#100000
b1011 !
b101011 !
b111011 !
b110011 !
b110010 !
b1 #
0"
1A
0C
0O
1B
1@
0?
0;
0<
1,
1U
1T
1K
0E
0D
0Q
1X
1\
0c
#150000
1"
1;
1<
0,
#200000
b110000 !
b11 #
b1110000 !
b1010000 !
b10 #
0"
0A
1>
0H
0@
1?
0;
0<
1,
0U
0T
0K
1E
1c
0\
0X
1Q
0I
1M
#250000
1"
1;
1<
0,
1N
0J
0F
1D
18
09
0:
1)
0*
0+
#300000
b11010000 !
b11000000 !
b11001000 !
b11001001 !
b11001011 !
b10001011 !
b11 #
0"
1A
1C
1H
1O
0B
0?
1=
0;
0<
1,
1U
1T
1K
1G
0M
1I
#350000
1"
1;
1<
0,
0N
1J
1F
0D
08
19
1:
0)
1*
1+
#400000
b1 #
b10101011 !
b10111011 !
b10111010 !
b11111010 !
b0 #
0"
0C
1B
1@
1?
0A
0>
0;
0<
1,
1X
1\
0U
0T
0K
0G
1i
#450000
1"
1;
1<
0,
1j
1]
1Y
0F
1f
1[
1W
1K
13
15
16
0:
1$
1&
1'
0+
#500000
b11111000 !
b11111001 !
b10111001 !
b1 #
0"
1A
1C
0H
0?
0;
0<
1,
0f
1U
1T
0E
1D
0I
0c
0W
0U
1W
#550000
1"
1;
1<
0,
#600000
b10111101 !
b111101 !
b11 #
b11101 !
b1101 !
b1111 !
b1001111 !
b10 #
0"
0A
1>
1H
1L
0B
0@
1?
0=
0;
0<
1,
1f
0T
1G
1E
0i
1h
1c
1I
1i
#650000
1"
1;
1<
0,
1F
0K
0G
0D
1:
1+
1M
0I
#700000
b11001111 !
b11101111 !
b10101111 !
b11 #
0"
1A
1@
0?
1=
0;
0<
1,
0f
1T
1K
1G
0M
1I
#750000
1"
1;
1<
0,
0F
0G
1D
0:
0+
0I
#800000
b10100111 !
b10100110 !
b10100010 !
b1 #
b10110010 !
b11110010 !
b0 #
0"
0A
0>
0C
0L
0O
1B
1?
0;
0<
1,
1f
0T
0h
0Q
1I
0D
#850000
1"
1;
1<
0,
0R
07
0(
#900000
b11010010 !
b11011010 !
b11011011 !
b11001011 !
b1 #
0"
1A
1C
1O
0B
0@
0;
0<
1,
0f
1U
1T
0E
1D
1Q
0X
0\
0W
0U
1W
#950000
1"
1;
1<
0,
